{
"Aatrox": {

"Mark":[ 
{
 "Label": "Greater Mark of Attack Damage",
 "RuneID": 5245,
 "Quantity": 9
 }],
"Seal":[ 
{
 "Label": "Greater Seal of Armor",
 "RuneID": 5317,
 "Quantity": 9
 }],
"Glyph":[ 
{
 "Label": "Greater Glyph of Scaling Magic Resist",
 "RuneID": 5290,
 "Quantity": 9
 }],
"Quintessence":[ 
{
 "Label": "Greater Quintessence of Attack Speed",
 "RuneID": 5337,
 "Quantity": 3
 }]
},

"Ahri": {

"Mark":[ 
{
 "Label": "Greater Mark of Magic Penetration",
 "RuneID": 5273,
 "Quantity": 9
 }],
"Seal":[ 
{
 "Label": "Greater Seal of Scaling Health",
 "RuneID": 5316,
 "Quantity": 9
 }],
"Glyph":[ 
{
 "Label": "Greater Glyph of Scaling Cooldown Reduction",
 "RuneID": 5296,
 "Quantity": 9
 }],
"Quintessence":[ 
{
 "Label": "Greater Quintessence of Ability Power",
 "RuneID": 5357,
 "Quantity": 3
 }]
},

"Akali": {

"Mark":[ 
{
 "Label": "Greater Mark of Hybrid Penetration",
 "RuneID": 5402,
 "Quantity": 9
 }],
"Seal":[ 
{
 "Label": "Greater Seal of Scaling Health",
 "RuneID": 5316,
 "Quantity": 9
 }],
"Glyph":[ 
{
 "Label": "Greater Glyph of Scaling Magic Resist",
 "RuneID": 5290,
 "Quantity": 9
 }],
"Quintessence":[ 
{
 "Label": "Greater Quintessence of Ability Power",
 "RuneID": 5357,
 "Quantity": 3
 }]
},

"Alistar": {

"Mark":[ 
{
 "Label": "Greater Mark of Armor",
 "RuneID": 5257,
 "Quantity": 9
 }],
"Seal":[ 
{
 "Label": "Greater Seal of Health",
 "RuneID": 5315,
 "Quantity": 9
 }],
"Glyph":[ 
{
 "Label": "Greater Glyph of Magic Resist",
 "RuneID": 5289,
 "Quantity": 9
 }],
"Quintessence":[ 
{
 "Label": "Greater Quintessence of Movement Speed",
 "RuneID": 5365,
 "Quantity": 3
 }]
},

"Amumu": {

"Mark":[ 
{
 "Label": "Greater Mark of Magic Penetration",
 "RuneID": 5273,
 "Quantity": 9
 }],
"Seal":[ 
{
 "Label": "Greater Seal of Armor",
 "RuneID": 5317,
 "Quantity": 9
 }],
"Glyph":[ 
{
 "Label": "Greater Glyph of Scaling Cooldown Reduction",
 "RuneID": 5296,
 "Quantity": 9
 }],
"Quintessence":[ 
{
 "Label": "Greater Quintessence of Movement Speed",
 "RuneID": 5365,
 "Quantity": 3
 }]
},

"Anivia": {

"Mark":[ 
{
 "Label": "Greater Mark of Magic Penetration",
 "RuneID": 5273,
 "Quantity": 9
 }],
"Seal":[ 
{
 "Label": "Greater Seal of Scaling Health",
 "RuneID": 5316,
 "Quantity": 9
 }],
"Glyph":[ 
{
 "Label": "Greater Glyph of Scaling Cooldown Reduction",
 "RuneID": 5296,
 "Quantity": 9
 }],
"Quintessence":[ 
{
 "Label": "Greater Quintessence of Ability Power",
 "RuneID": 5357,
 "Quantity": 3
 }]
},

"Annie": {

"Mark":[ 
{
 "Label": "Greater Mark of Magic Penetration",
 "RuneID": 5273,
 "Quantity": 9
 }],
"Seal":[ 
{
 "Label": "Greater Seal of Scaling Health",
 "RuneID": 5316,
 "Quantity": 9
 }],
"Glyph":[ 
{
 "Label": "Greater Glyph of Scaling Cooldown Reduction",
 "RuneID": 5296,
 "Quantity": 9
 }],
"Quintessence":[ 
{
 "Label": "Greater Quintessence of Ability Power",
 "RuneID": 5357,
 "Quantity": 3
 }]
},

"Ashe": {

"Mark":[ 
{
 "Label": "Greater Mark of Attack Damage",
 "RuneID": 5245,
 "Quantity": 9
 }],
"Seal":[ 
{
 "Label": "Greater Seal of Armor",
 "RuneID": 5317,
 "Quantity": 9
 }],
"Glyph":[ 
{
 "Label": "Greater Glyph of Scaling Magic Resist",
 "RuneID": 5290,
 "Quantity": 9
 }],
"Quintessence":[ 
{
 "Label": "Greater Quintessence of Attack Speed",
 "RuneID": 5337,
 "Quantity": 3
 }]
},

"AurelionSol": {

"Mark":[ 
{
 "Label": "Greater Mark of Magic Penetration",
 "RuneID": 5273,
 "Quantity": 9
 }],
"Seal":[ 
{
 "Label": "Greater Seal of Scaling Health",
 "RuneID": 5316,
 "Quantity": 9
 }],
"Glyph":[ 
{
 "Label": "Greater Glyph of Scaling Magic Resist",
 "RuneID": 5290,
 "Quantity": 9
 }],
"Quintessence":[ 
{
 "Label": "Greater Quintessence of Movement Speed",
 "RuneID": 5365,
 "Quantity": 3
 }]
},

"Azir": {

"Mark":[ 
{
 "Label": "Greater Mark of Magic Penetration",
 "RuneID": 5273,
 "Quantity": 9
 }],
"Seal":[ 
{
 "Label": "Greater Seal of Scaling Health",
 "RuneID": 5316,
 "Quantity": 9
 }],
"Glyph":[ 
{
 "Label": "Greater Glyph of Scaling Cooldown Reduction",
 "RuneID": 5296,
 "Quantity": 9
 }],
"Quintessence":[ 
{
 "Label": "Greater Quintessence of Ability Power",
 "RuneID": 5357,
 "Quantity": 3
 }]
},

"Bard": {

"Mark":[ 
{
 "Label": "Greater Mark of Magic Penetration",
 "RuneID": 5273,
 "Quantity": 9
 }],
"Seal":[ 
{
 "Label": "Greater Seal of Armor",
 "RuneID": 5317,
 "Quantity": 9
 }],
"Glyph":[ 
{
 "Label": "Greater Glyph of Magic Resist",
 "RuneID": 5289,
 "Quantity": 9
 }],
"Quintessence":[ 
{
 "Label": "Greater Quintessence of Ability Power",
 "RuneID": 5357,
 "Quantity": 3
 }]
},

"Blitzcrank": {

"Mark":[ 
{
 "Label": "Greater Mark of Attack Damage",
 "RuneID": 5245,
 "Quantity": 9
 }],
"Seal":[ 
{
 "Label": "Greater Seal of Health",
 "RuneID": 5315,
 "Quantity": 9
 }],
"Glyph":[ 
{
 "Label": "Greater Glyph of Mana",
 "RuneID": 5299,
 "Quantity": 9
 }],
"Quintessence":[ 
{
 "Label": "Greater Quintessence of Armor",
 "RuneID": 5347,
 "Quantity": 3
 }]
},

"Brand": {

"Mark":[ 
{
 "Label": "Greater Mark of Magic Penetration",
 "RuneID": 5273,
 "Quantity": 9
 }],
"Seal":[ 
{
 "Label": "Greater Seal of Scaling Health",
 "RuneID": 5316,
 "Quantity": 9
 }],
"Glyph":[ 
{
 "Label": "Greater Glyph of Scaling Cooldown Reduction",
 "RuneID": 5296,
 "Quantity": 9
 }],
"Quintessence":[ 
{
 "Label": "Greater Quintessence of Ability Power",
 "RuneID": 5357,
 "Quantity": 3
 }]
},

"Braum": {

"Mark":[ 
{
 "Label": "Greater Mark of Armor",
 "RuneID": 5257,
 "Quantity": 9
 }],
"Seal":[ 
{
 "Label": "Greater Seal of Health",
 "RuneID": 5315,
 "Quantity": 9
 }],
"Glyph":[ 
{
 "Label": "Greater Glyph of Magic Resist",
 "RuneID": 5289,
 "Quantity": 9
 }],
"Quintessence":[ 
{
 "Label": "Greater Quintessence of Armor",
 "RuneID": 5347,
 "Quantity": 3
 }]
},

"Caitlyn": {

"Mark":[ 
{
 "Label": "Greater Mark of Attack Damage",
 "RuneID": 5245,
 "Quantity": 9
 }],
"Seal":[ 
{
 "Label": "Greater Seal of Armor",
 "RuneID": 5317,
 "Quantity": 9
 }],
"Glyph":[ 
{
 "Label": "Greater Glyph of Scaling Magic Resist",
 "RuneID": 5290,
 "Quantity": 9
 }],
"Quintessence":[ 
{
 "Label": "Greater Quintessence of Attack Speed",
 "RuneID": 5337,
 "Quantity": 3
 }]
},

"Camille": {

"Mark":[ 
{
 "Label": "Greater Mark of Attack Damage",
 "RuneID": 5245,
 "Quantity": 9
 }],
"Seal":[ 
{
 "Label": "Greater Seal of Armor",
 "RuneID": 5317,
 "Quantity": 9
 }],
"Glyph":[ 
{
 "Label": "Greater Glyph of Scaling Cooldown Reduction",
 "RuneID": 5296,
 "Quantity": 9
 }],
"Quintessence":[ 
{
 "Label": "Greater Quintessence of Attack Damage",
 "RuneID": 5335,
 "Quantity": 3
 }]
},

"Cassiopeia": {

"Mark":[ 
{
 "Label": "Greater Mark of Magic Penetration",
 "RuneID": 5273,
 "Quantity": 9
 }],
"Seal":[ 
{
 "Label": "Greater Seal of Scaling Health",
 "RuneID": 5316,
 "Quantity": 9
 }],
"Glyph":[ 
{
 "Label": "Greater Glyph of Scaling Cooldown Reduction",
 "RuneID": 5296,
 "Quantity": 9
 }],
"Quintessence":[ 
{
 "Label": "Greater Quintessence of Ability Power",
 "RuneID": 5357,
 "Quantity": 3
 }]
},

"Chogath": {

"Mark":[ 
{
 "Label": "Greater Mark of Magic Penetration",
 "RuneID": 5273,
 "Quantity": 9
 }],
"Seal":[ 
{
 "Label": "Greater Seal of Scaling Health",
 "RuneID": 5316,
 "Quantity": 9
 }],
"Glyph":[ 
{
 "Label": "Greater Glyph of Scaling Cooldown Reduction",
 "RuneID": 5296,
 "Quantity": 9
 }],
"Quintessence":[ 
{
 "Label": "Greater Quintessence of Ability Power",
 "RuneID": 5357,
 "Quantity": 3
 }]
},

"Corki": {

"Mark":[ 
{
 "Label": "Greater Mark of Attack Damage",
 "RuneID": 5245,
 "Quantity": 9
 }],
"Seal":[ 
{
 "Label": "Greater Seal of Armor",
 "RuneID": 5317,
 "Quantity": 9
 }],
"Glyph":[ 
{
 "Label": "Greater Glyph of Scaling Magic Resist",
 "RuneID": 5290,
 "Quantity": 9
 }],
"Quintessence":[ 
{
 "Label": "Greater Quintessence of Attack Damage",
 "RuneID": 5335,
 "Quantity": 3
 }]
},

"Darius": {

"Mark":[ 
{
 "Label": "Greater Mark of Attack Damage",
 "RuneID": 5245,
 "Quantity": 9
 }],
"Seal":[ 
{
 "Label": "Greater Seal of Armor",
 "RuneID": 5317,
 "Quantity": 9
 }],
"Glyph":[ 
{
 "Label": "Greater Glyph of Scaling Cooldown Reduction",
 "RuneID": 5296,
 "Quantity": 9
 }],
"Quintessence":[ 
{
 "Label": "Greater Quintessence of Attack Damage",
 "RuneID": 5335,
 "Quantity": 3
 }]
},

"Diana": {

"Mark":[ 
{
 "Label": "Greater Mark of Magic Penetration",
 "RuneID": 5273,
 "Quantity": 9
 }],
"Seal":[ 
{
 "Label": "Greater Seal of Scaling Health",
 "RuneID": 5316,
 "Quantity": 9
 }],
"Glyph":[ 
{
 "Label": "Greater Glyph of Scaling Cooldown Reduction",
 "RuneID": 5296,
 "Quantity": 9
 }],
"Quintessence":[ 
{
 "Label": "Greater Quintessence of Ability Power",
 "RuneID": 5357,
 "Quantity": 3
 }]
},

"Draven": {

"Mark":[ 
{
 "Label": "Greater Mark of Attack Damage",
 "RuneID": 5245,
 "Quantity": 9
 }],
"Seal":[ 
{
 "Label": "Greater Seal of Armor",
 "RuneID": 5317,
 "Quantity": 9
 }],
"Glyph":[ 
{
 "Label": "Greater Glyph of Scaling Magic Resist",
 "RuneID": 5290,
 "Quantity": 9
 }],
"Quintessence":[ 
{
 "Label": "Greater Quintessence of Attack Speed",
 "RuneID": 5337,
 "Quantity": 3
 }]
},

"DrMundo": {

"Mark":[ 
{
 "Label": "Greater Mark of Hybrid Penetration",
 "RuneID": 5402,
 "Quantity": 9
 }],
"Seal":[ 
{
 "Label": "Greater Seal of Scaling Health",
 "RuneID": 5316,
 "Quantity": 9
 }],
"Glyph":[ 
{
 "Label": "Greater Glyph of Scaling Magic Resist",
 "RuneID": 5290,
 "Quantity": 9
 }],
"Quintessence":[ 
{
 "Label": "Greater Quintessence of Health",
 "RuneID": 5345,
 "Quantity": 3
 }]
},

"Ekko": {

"Mark":[ 
{
 "Label": "Greater Mark of Magic Penetration",
 "RuneID": 5273,
 "Quantity": 9
 }],
"Seal":[ 
{
 "Label": "Greater Seal of Scaling Health",
 "RuneID": 5316,
 "Quantity": 9
 }],
"Glyph":[ 
{
 "Label": "Greater Glyph of Scaling Cooldown Reduction",
 "RuneID": 5296,
 "Quantity": 9
 }],
"Quintessence":[ 
{
 "Label": "Greater Quintessence of Ability Power",
 "RuneID": 5357,
 "Quantity": 3
 }]
},

"Elise": {

"Mark":[ 
{
 "Label": "Greater Mark of Attack Speed",
 "RuneID": 5247,
 "Quantity": 9
 }],
"Seal":[ 
{
 "Label": "Greater Seal of Armor",
 "RuneID": 5317,
 "Quantity": 9
 }],
"Glyph":[ 
{
 "Label": "Greater Glyph of Scaling Magic Resist",
 "RuneID": 5290,
 "Quantity": 9
 }],
"Quintessence":[ 
{
 "Label": "Greater Quintessence of Ability Power",
 "RuneID": 5357,
 "Quantity": 3
 }]
},

"Evelynn": {

"Mark":[ 
{
 "Label": "Greater Mark of Attack Damage",
 "RuneID": 5245,
 "Quantity": 9
 }],
"Seal":[ 
{
 "Label": "Greater Seal of Armor",
 "RuneID": 5317,
 "Quantity": 9
 }],
"Glyph":[ 
{
 "Label": "Greater Glyph of Cooldown Reduction",
 "RuneID": 5295,
 "Quantity": 6
 },
{
 "Label": "Greater Glyph of Scaling Cooldown Reduction",
 "RuneID": 5296,
 "Quantity": 3
}],
"Quintessence":[ 
{
 "Label": "Greater Quintessence of Ability Power",
 "RuneID": 5357,
 "Quantity": 3
 }]
},

"Ezreal": {

"Mark":[ 
{
 "Label": "Greater Mark of Attack Damage",
 "RuneID": 5245,
 "Quantity": 9
 }],
"Seal":[ 
{
 "Label": "Greater Seal of Armor",
 "RuneID": 5317,
 "Quantity": 9
 }],
"Glyph":[ 
{
 "Label": "Greater Glyph of Scaling Magic Resist",
 "RuneID": 5290,
 "Quantity": 9
 }],
"Quintessence":[ 
{
 "Label": "Greater Quintessence of Attack Damage",
 "RuneID": 5335,
 "Quantity": 3
 }]
},

"Fiddlesticks": {

"Mark":[ 
{
 "Label": "Greater Mark of Magic Penetration",
 "RuneID": 5273,
 "Quantity": 9
 }],
"Seal":[ 
{
 "Label": "Greater Seal of Scaling Health",
 "RuneID": 5316,
 "Quantity": 9
 }],
"Glyph":[ 
{
 "Label": "Greater Glyph of Scaling Cooldown Reduction",
 "RuneID": 5296,
 "Quantity": 9
 }],
"Quintessence":[ 
{
 "Label": "Greater Quintessence of Ability Power",
 "RuneID": 5357,
 "Quantity": 3
 }]
},

"Fiora": {

"Mark":[ 
{
 "Label": "Greater Mark of Attack Damage",
 "RuneID": 5245,
 "Quantity": 9
 }],
"Seal":[ 
{
 "Label": "Greater Seal of Armor",
 "RuneID": 5317,
 "Quantity": 9
 }],
"Glyph":[ 
{
 "Label": "Greater Glyph of Scaling Cooldown Reduction",
 "RuneID": 5296,
 "Quantity": 9
 }],
"Quintessence":[ 
{
 "Label": "Greater Quintessence of Attack Speed",
 "RuneID": 5337,
 "Quantity": 3
 }]
},

"Fizz": {

"Mark":[ 
{
 "Label": "Greater Mark of Magic Penetration",
 "RuneID": 5273,
 "Quantity": 9
 }],
"Seal":[ 
{
 "Label": "Greater Seal of Scaling Health",
 "RuneID": 5316,
 "Quantity": 9
 }],
"Glyph":[ 
{
 "Label": "Greater Glyph of Scaling Cooldown Reduction",
 "RuneID": 5296,
 "Quantity": 9
 }],
"Quintessence":[ 
{
 "Label": "Greater Quintessence of Ability Power",
 "RuneID": 5357,
 "Quantity": 3
 }]
},

"Galio": {

"Mark":[ 
{
 "Label": "Greater Mark of Magic Penetration",
 "RuneID": 5273,
 "Quantity": 9
 }],
"Seal":[ 
{
 "Label": "Greater Seal of Armor",
 "RuneID": 5317,
 "Quantity": 9
 }],
"Glyph":[ 
{
 "Label": "Greater Glyph of Scaling Cooldown Reduction",
 "RuneID": 5296,
 "Quantity": 9
 }],
"Quintessence":[ 
{
 "Label": "Greater Quintessence of Movement Speed",
 "RuneID": 5365,
 "Quantity": 3
 }]
},

"Gangplank": {

"Mark":[ 
{
 "Label": "Greater Mark of Armor Penetration",
 "RuneID": 5253,
 "Quantity": 9
 }],
"Seal":[ 
{
 "Label": "Greater Seal of Armor",
 "RuneID": 5317,
 "Quantity": 9
 }],
"Glyph":[ 
{
 "Label": "Greater Glyph of Scaling Cooldown Reduction",
 "RuneID": 5296,
 "Quantity": 9
 }],
"Quintessence":[ 
{
 "Label": "Greater Quintessence of Attack Damage",
 "RuneID": 5335,
 "Quantity": 3
 }]
},

"Garen": {

"Mark":[ 
{
 "Label": "Greater Mark of Armor Penetration",
 "RuneID": 5253,
 "Quantity": 9
 }],
"Seal":[ 
{
 "Label": "Greater Seal of Armor",
 "RuneID": 5317,
 "Quantity": 9
 }],
"Glyph":[ 
{
 "Label": "Greater Glyph of Scaling Cooldown Reduction",
 "RuneID": 5296,
 "Quantity": 9
 }],
"Quintessence":[ 
{
 "Label": "Greater Quintessence of Attack Damage",
 "RuneID": 5335,
 "Quantity": 3
 }]
},

"Gnar": {

"Mark":[ 
{
 "Label": "Greater Mark of Attack Damage",
 "RuneID": 5245,
 "Quantity": 9
 }],
"Seal":[ 
{
 "Label": "Greater Seal of Armor",
 "RuneID": 5317,
 "Quantity": 9
 }],
"Glyph":[ 
{
 "Label": "Greater Glyph of Scaling Cooldown Reduction",
 "RuneID": 5296,
 "Quantity": 9
 }],
"Quintessence":[ 
{
 "Label": "Greater Quintessence of Attack Damage",
 "RuneID": 5335,
 "Quantity": 3
 }]
},

"Gragas": {

"Mark":[ 
{
 "Label": "Greater Mark of Magic Penetration",
 "RuneID": 5273,
 "Quantity": 9
 }],
"Seal":[ 
{
 "Label": "Greater Seal of Scaling Health",
 "RuneID": 5316,
 "Quantity": 9
 }],
"Glyph":[ 
{
 "Label": "Greater Glyph of Scaling Cooldown Reduction",
 "RuneID": 5296,
 "Quantity": 9
 }],
"Quintessence":[ 
{
 "Label": "Greater Quintessence of Ability Power",
 "RuneID": 5357,
 "Quantity": 3
 }]
},

"Graves": {

"Mark":[ 
{
 "Label": "Greater Mark of Attack Damage",
 "RuneID": 5245,
 "Quantity": 9
 }],
"Seal":[ 
{
 "Label": "Greater Seal of Armor",
 "RuneID": 5317,
 "Quantity": 9
 }],
"Glyph":[ 
{
 "Label": "Greater Glyph of Scaling Magic Resist",
 "RuneID": 5290,
 "Quantity": 9
 }],
"Quintessence":[ 
{
 "Label": "Greater Quintessence of Attack Damage",
 "RuneID": 5335,
 "Quantity": 3
 }]
},

"Hecarim": {

"Mark":[ 
{
 "Label": "Greater Mark of Armor Penetration",
 "RuneID": 5253,
 "Quantity": 9
 }],
"Seal":[ 
{
 "Label": "Greater Seal of Scaling Health",
 "RuneID": 5316,
 "Quantity": 9
 }],
"Glyph":[ 
{
 "Label": "Greater Glyph of Scaling Cooldown Reduction",
 "RuneID": 5296,
 "Quantity": 9
 }],
"Quintessence":[ 
{
 "Label": "Greater Quintessence of Movement Speed",
 "RuneID": 5365,
 "Quantity": 3
 }]
},

"Heimerdinger": {

"Mark":[ 
{
 "Label": "Greater Mark of Magic Penetration",
 "RuneID": 5273,
 "Quantity": 9
 }],
"Seal":[ 
{
 "Label": "Greater Seal of Scaling Health",
 "RuneID": 5316,
 "Quantity": 9
 }],
"Glyph":[ 
{
 "Label": "Greater Glyph of Cooldown Reduction",
 "RuneID": 5295,
 "Quantity": 9
 }],
"Quintessence":[ 
{
 "Label": "Greater Quintessence of Ability Power",
 "RuneID": 5357,
 "Quantity": 3
 }]
},

"Illaoi": {

"Mark":[ 
{
 "Label": "Greater Mark of Attack Damage",
 "RuneID": 5245,
 "Quantity": 9
 }],
"Seal":[ 
{
 "Label": "Greater Seal of Armor",
 "RuneID": 5317,
 "Quantity": 9
 }],
"Glyph":[ 
{
 "Label": "Greater Glyph of Scaling Cooldown Reduction",
 "RuneID": 5296,
 "Quantity": 9
 }],
"Quintessence":[ 
{
 "Label": "Greater Quintessence of Attack Damage",
 "RuneID": 5335,
 "Quantity": 3
 }]
},

"Irelia": {

"Mark":[ 
{
 "Label": "Greater Mark of Attack Damage",
 "RuneID": 5245,
 "Quantity": 9
 }],
"Seal":[ 
{
 "Label": "Greater Seal of Armor",
 "RuneID": 5317,
 "Quantity": 9
 }],
"Glyph":[ 
{
 "Label": "Greater Glyph of Scaling Cooldown Reduction",
 "RuneID": 5296,
 "Quantity": 9
 }],
"Quintessence":[ 
{
 "Label": "Greater Quintessence of Attack Speed",
 "RuneID": 5337,
 "Quantity": 3
 }]
},

"Ivern": {

"Mark":[ 
{
 "Label": "Greater Mark of Magic Penetration",
 "RuneID": 5273,
 "Quantity": 9
 }],
"Seal":[ 
{
 "Label": "Greater Seal of Armor",
 "RuneID": 5317,
 "Quantity": 9
 }],
"Glyph":[ 
{
 "Label": "Greater Glyph of Scaling Cooldown Reduction",
 "RuneID": 5296,
 "Quantity": 9
 }],
"Quintessence":[ 
{
 "Label": "Greater Quintessence of Ability Power",
 "RuneID": 5357,
 "Quantity": 3
 }]
},

"Janna": {

"Mark":[ 
{
 "Label": "Greater Mark of Armor",
 "RuneID": 5257,
 "Quantity": 9
 }],
"Seal":[ 
{
 "Label": "Greater Seal of Health",
 "RuneID": 5315,
 "Quantity": 9
 }],
"Glyph":[ 
{
 "Label": "Greater Glyph of Cooldown Reduction",
 "RuneID": 5295,
 "Quantity": 6
 },
{
 "Label": "Greater Glyph of Scaling Cooldown Reduction",
 "RuneID": 5296,
 "Quantity": 3
}],
"Quintessence":[ 
{
 "Label": "Greater Quintessence of Ability Power",
 "RuneID": 5357,
 "Quantity": 3
 }]
},

"JarvanIV": {

"Mark":[ 
{
 "Label": "Greater Mark of Armor Penetration",
 "RuneID": 5253,
 "Quantity": 9
 }],
"Seal":[ 
{
 "Label": "Greater Seal of Armor",
 "RuneID": 5317,
 "Quantity": 9
 }],
"Glyph":[ 
{
 "Label": "Greater Glyph of Scaling Cooldown Reduction",
 "RuneID": 5296,
 "Quantity": 9
 }],
"Quintessence":[ 
{
 "Label": "Greater Quintessence of Attack Damage",
 "RuneID": 5335,
 "Quantity": 3
 }]
},

"Jax": {

"Mark":[ 
{
 "Label": "Greater Mark of Attack Damage",
 "RuneID": 5245,
 "Quantity": 9
 }],
"Seal":[ 
{
 "Label": "Greater Seal of Armor",
 "RuneID": 5317,
 "Quantity": 9
 }],
"Glyph":[ 
{
 "Label": "Greater Glyph of Scaling Cooldown Reduction",
 "RuneID": 5296,
 "Quantity": 9
 }],
"Quintessence":[ 
{
 "Label": "Greater Quintessence of Attack Speed",
 "RuneID": 5337,
 "Quantity": 3
 }]
},

"Jayce": {

"Mark":[ 
{
 "Label": "Greater Mark of Armor Penetration",
 "RuneID": 5253,
 "Quantity": 9
 }],
"Seal":[ 
{
 "Label": "Greater Seal of Armor",
 "RuneID": 5317,
 "Quantity": 9
 }],
"Glyph":[ 
{
 "Label": "Greater Glyph of Scaling Magic Resist",
 "RuneID": 5290,
 "Quantity": 9
 }],
"Quintessence":[ 
{
 "Label": "Greater Quintessence of Attack Damage",
 "RuneID": 5335,
 "Quantity": 3
 }]
},

"Jhin": {

"Mark":[ 
{
 "Label": "Greater Mark of Attack Damage",
 "RuneID": 5245,
 "Quantity": 9
 }],
"Seal":[ 
{
 "Label": "Greater Seal of Armor",
 "RuneID": 5317,
 "Quantity": 9
 }],
"Glyph":[ 
{
 "Label": "Greater Glyph of Scaling Magic Resist",
 "RuneID": 5290,
 "Quantity": 9
 }],
"Quintessence":[ 
{
 "Label": "Greater Quintessence of Attack Damage",
 "RuneID": 5335,
 "Quantity": 3
 }]
},

"Jinx": {

"Mark":[ 
{
 "Label": "Greater Mark of Attack Damage",
 "RuneID": 5245,
 "Quantity": 9
 }],
"Seal":[ 
{
 "Label": "Greater Seal of Armor",
 "RuneID": 5317,
 "Quantity": 9
 }],
"Glyph":[ 
{
 "Label": "Greater Glyph of Scaling Magic Resist",
 "RuneID": 5290,
 "Quantity": 9
 }],
"Quintessence":[ 
{
 "Label": "Greater Quintessence of Attack Speed",
 "RuneID": 5337,
 "Quantity": 3
 }]
},

"Kalista": {

"Mark":[ 
{
 "Label": "Greater Mark of Attack Damage",
 "RuneID": 5245,
 "Quantity": 9
 }],
"Seal":[ 
{
 "Label": "Greater Seal of Armor",
 "RuneID": 5317,
 "Quantity": 9
 }],
"Glyph":[ 
{
 "Label": "Greater Glyph of Scaling Magic Resist",
 "RuneID": 5290,
 "Quantity": 9
 }],
"Quintessence":[ 
{
 "Label": "Greater Quintessence of Attack Speed",
 "RuneID": 5337,
 "Quantity": 3
 }]
},

"Karma": {

"Mark":[ 
{
 "Label": "Greater Mark of Magic Penetration",
 "RuneID": 5273,
 "Quantity": 9
 }],
"Seal":[ 
{
 "Label": "Greater Seal of Scaling Health",
 "RuneID": 5316,
 "Quantity": 9
 }],
"Glyph":[ 
{
 "Label": "Greater Glyph of Scaling Cooldown Reduction",
 "RuneID": 5296,
 "Quantity": 9
 }],
"Quintessence":[ 
{
 "Label": "Greater Quintessence of Ability Power",
 "RuneID": 5357,
 "Quantity": 3
 }]
},

"Karthus": {

"Mark":[ 
{
 "Label": "Greater Mark of Magic Penetration",
 "RuneID": 5273,
 "Quantity": 9
 }],
"Seal":[ 
{
 "Label": "Greater Seal of Scaling Health",
 "RuneID": 5316,
 "Quantity": 9
 }],
"Glyph":[ 
{
 "Label": "Greater Glyph of Scaling Cooldown Reduction",
 "RuneID": 5296,
 "Quantity": 9
 }],
"Quintessence":[ 
{
 "Label": "Greater Quintessence of Movement Speed",
 "RuneID": 5365,
 "Quantity": 3
 }]
},

"Kassadin": {

"Mark":[ 
{
 "Label": "Greater Mark of Magic Penetration",
 "RuneID": 5273,
 "Quantity": 9
 }],
"Seal":[ 
{
 "Label": "Greater Seal of Scaling Health",
 "RuneID": 5316,
 "Quantity": 9
 }],
"Glyph":[ 
{
 "Label": "Greater Glyph of Scaling Cooldown Reduction",
 "RuneID": 5296,
 "Quantity": 9
 }],
"Quintessence":[ 
{
 "Label": "Greater Quintessence of Ability Power",
 "RuneID": 5357,
 "Quantity": 3
 }]
},

"Katarina": {

"Mark":[ 
{
 "Label": "Greater Mark of Magic Penetration",
 "RuneID": 5273,
 "Quantity": 9
 }],
"Seal":[ 
{
 "Label": "Greater Seal of Scaling Health",
 "RuneID": 5316,
 "Quantity": 9
 }],
"Glyph":[ 
{
 "Label": "Greater Glyph of Scaling Ability Power",
 "RuneID": 5298,
 "Quantity": 9
 }],
"Quintessence":[ 
{
 "Label": "Greater Quintessence of Movement Speed",
 "RuneID": 5365,
 "Quantity": 3
 }]
},

"Kayle": {

"Mark":[ 
{
 "Label": "Greater Mark of Attack Damage",
 "RuneID": 5245,
 "Quantity": 9
 }],
"Seal":[ 
{
 "Label": "Greater Seal of Armor",
 "RuneID": 5317,
 "Quantity": 9
 }],
"Glyph":[ 
{
 "Label": "Greater Glyph of Scaling Cooldown Reduction",
 "RuneID": 5296,
 "Quantity": 9
 }],
"Quintessence":[ 
{
 "Label": "Greater Quintessence of Attack Speed",
 "RuneID": 5337,
 "Quantity": 3
 }]
},

"Kayn": {

"Mark":[ 
{
 "Label": "Greater Mark of Attack Damage",
 "RuneID": 5245,
 "Quantity": 9
 }],
"Seal":[ 
{
 "Label": "Greater Seal of Armor",
 "RuneID": 5317,
 "Quantity": 9
 }],
"Glyph":[ 
{
 "Label": "Greater Glyph of Scaling Cooldown Reduction",
 "RuneID": 5296,
 "Quantity": 9
 }],
"Quintessence":[ 
{
 "Label": "Greater Quintessence of Attack Speed",
 "RuneID": 5337,
 "Quantity": 3
 }]
},


"Kennen": {

"Mark":[ 
{
 "Label": "Greater Mark of Hybrid Penetration",
 "RuneID": 5402,
 "Quantity": 9
 }],
"Seal":[ 
{
 "Label": "Greater Seal of Scaling Health",
 "RuneID": 5316,
 "Quantity": 9
 }],
"Glyph":[ 
{
 "Label": "Greater Glyph of Scaling Magic Resist",
 "RuneID": 5290,
 "Quantity": 9
 }],
"Quintessence":[ 
{
 "Label": "Greater Quintessence of Ability Power",
 "RuneID": 5357,
 "Quantity": 3
 }]
},

"Khazix": {

"Mark":[ 
{
 "Label": "Greater Mark of Attack Damage",
 "RuneID": 5245,
 "Quantity": 9
 }],
"Seal":[ 
{
 "Label": "Greater Seal of Armor",
 "RuneID": 5317,
 "Quantity": 9
 }],
"Glyph":[ 
{
 "Label": "Greater Glyph of Scaling Cooldown Reduction",
 "RuneID": 5296,
 "Quantity": 9
 }],
"Quintessence":[ 
{
 "Label": "Greater Quintessence of Attack Damage",
 "RuneID": 5335,
 "Quantity": 3
 }]
},

"Kindred": {

"Mark":[ 
{
 "Label": "Greater Mark of Attack Damage",
 "RuneID": 5245,
 "Quantity": 9
 }],
"Seal":[ 
{
 "Label": "Greater Seal of Armor",
 "RuneID": 5317,
 "Quantity": 9
 }],
"Glyph":[ 
{
 "Label": "Greater Glyph of Scaling Magic Resist",
 "RuneID": 5290,
 "Quantity": 9
 }],
"Quintessence":[ 
{
 "Label": "Greater Quintessence of Attack Speed",
 "RuneID": 5337,
 "Quantity": 3
 }]
},

"Kled": {

"Mark":[ 
{
 "Label": "Greater Mark of Attack Damage",
 "RuneID": 5245,
 "Quantity": 9
 }],
"Seal":[ 
{
 "Label": "Greater Seal of Armor",
 "RuneID": 5317,
 "Quantity": 9
 }],
"Glyph":[ 
{
 "Label": "Greater Glyph of Scaling Cooldown Reduction",
 "RuneID": 5296,
 "Quantity": 9
 }],
"Quintessence":[ 
{
 "Label": "Greater Quintessence of Attack Damage",
 "RuneID": 5335,
 "Quantity": 3
 }]
},

"KogMaw": {

"Mark":[ 
{
 "Label": "Greater Mark of Attack Damage",
 "RuneID": 5245,
 "Quantity": 9
 }],
"Seal":[ 
{
 "Label": "Greater Seal of Armor",
 "RuneID": 5317,
 "Quantity": 9
 }],
"Glyph":[ 
{
 "Label": "Greater Glyph of Scaling Magic Resist",
 "RuneID": 5290,
 "Quantity": 9
 }],
"Quintessence":[ 
{
 "Label": "Greater Quintessence of Attack Speed",
 "RuneID": 5337,
 "Quantity": 3
 }]
},

"Leblanc": {

"Mark":[ 
{
 "Label": "Greater Mark of Magic Penetration",
 "RuneID": 5273,
 "Quantity": 9
 }],
"Seal":[ 
{
 "Label": "Greater Seal of Scaling Health",
 "RuneID": 5316,
 "Quantity": 9
 }],
"Glyph":[ 
{
 "Label": "Greater Glyph of Scaling Cooldown Reduction",
 "RuneID": 5296,
 "Quantity": 9
 }],
"Quintessence":[ 
{
 "Label": "Greater Quintessence of Ability Power",
 "RuneID": 5357,
 "Quantity": 3
 }]
},

"LeeSin": {

"Mark":[ 
{
 "Label": "Greater Mark of Attack Damage",
 "RuneID": 5245,
 "Quantity": 9
 }],
"Seal":[ 
{
 "Label": "Greater Seal of Armor",
 "RuneID": 5317,
 "Quantity": 9
 }],
"Glyph":[ 
{
 "Label": "Greater Glyph of Scaling Cooldown Reduction",
 "RuneID": 5296,
 "Quantity": 9
 }],
"Quintessence":[ 
{
 "Label": "Greater Quintessence of Attack Damage",
 "RuneID": 5335,
 "Quantity": 3
 }]
},

"Leona": {

"Mark":[ 
{
 "Label": "Greater Mark of Armor",
 "RuneID": 5257,
 "Quantity": 9
 }],
"Seal":[ 
{
 "Label": "Greater Seal of Health",
 "RuneID": 5315,
 "Quantity": 9
 }],
"Glyph":[ 
{
 "Label": "Greater Glyph of Scaling Magic Resist",
 "RuneID": 5290,
 "Quantity": 9
 }],
"Quintessence":[ 
{
 "Label": "Greater Quintessence of Armor",
 "RuneID": 5347,
 "Quantity": 3
 }]
},

"Lissandra": {

"Mark":[ 
{
 "Label": "Greater Mark of Magic Penetration",
 "RuneID": 5273,
 "Quantity": 9
 }],
"Seal":[ 
{
 "Label": "Greater Seal of Scaling Health",
 "RuneID": 5316,
 "Quantity": 9
 }],
"Glyph":[ 
{
 "Label": "Greater Glyph of Scaling Cooldown Reduction",
 "RuneID": 5296,
 "Quantity": 9
 }],
"Quintessence":[ 
{
 "Label": "Greater Quintessence of Ability Power",
 "RuneID": 5357,
 "Quantity": 3
 }]
},

"Lucian": {

"Mark":[ 
{
 "Label": "Greater Mark of Attack Damage",
 "RuneID": 5245,
 "Quantity": 9
 }],
"Seal":[ 
{
 "Label": "Greater Seal of Armor",
 "RuneID": 5317,
 "Quantity": 9
 }],
"Glyph":[ 
{
 "Label": "Greater Glyph of Scaling Magic Resist",
 "RuneID": 5290,
 "Quantity": 9
 }],
"Quintessence":[ 
{
 "Label": "Greater Quintessence of Attack Speed",
 "RuneID": 5337,
 "Quantity": 3
 }]
},

"Lulu": {

"Mark":[ 
{
 "Label": "Greater Mark of Magic Penetration",
 "RuneID": 5273,
 "Quantity": 9
 }],
"Seal":[ 
{
 "Label": "Greater Seal of Scaling Health",
 "RuneID": 5316,
 "Quantity": 9
 }],
"Glyph":[ 
{
 "Label": "Greater Glyph of Scaling Cooldown Reduction",
 "RuneID": 5296,
 "Quantity": 9
 }],
"Quintessence":[ 
{
 "Label": "Greater Quintessence of Ability Power",
 "RuneID": 5357,
 "Quantity": 3
 }]
},

"Lux": {

"Mark":[ 
{
 "Label": "Greater Mark of Magic Penetration",
 "RuneID": 5273,
 "Quantity": 9
 }],
"Seal":[ 
{
 "Label": "Greater Seal of Scaling Health",
 "RuneID": 5316,
 "Quantity": 9
 }],
"Glyph":[ 
{
 "Label": "Greater Glyph of Scaling Cooldown Reduction",
 "RuneID": 5296,
 "Quantity": 9
 }],
"Quintessence":[ 
{
 "Label": "Greater Quintessence of Ability Power",
 "RuneID": 5357,
 "Quantity": 3
 }]
},

"Malphite": {

"Mark":[ 
{
 "Label": "Greater Mark of Hybrid Penetration",
 "RuneID": 5402,
 "Quantity": 9
 }],
"Seal":[ 
{
 "Label": "Greater Seal of Health",
 "RuneID": 5315,
 "Quantity": 9
 }],
"Glyph":[ 
{
 "Label": "Greater Glyph of Scaling Cooldown Reduction",
 "RuneID": 5296,
 "Quantity": 9
 }],
"Quintessence":[ 
{
 "Label": "Greater Quintessence of Armor",
 "RuneID": 5347,
 "Quantity": 3
 }]
},

"Malzahar": {

"Mark":[ 
{
 "Label": "Greater Mark of Magic Penetration",
 "RuneID": 5273,
 "Quantity": 9
 }],
"Seal":[ 
{
 "Label": "Greater Seal of Scaling Health",
 "RuneID": 5316,
 "Quantity": 9
 }],
"Glyph":[ 
{
 "Label": "Greater Glyph of Scaling Cooldown Reduction",
 "RuneID": 5296,
 "Quantity": 9
 }],
"Quintessence":[ 
{
 "Label": "Greater Quintessence of Ability Power",
 "RuneID": 5357,
 "Quantity": 3
 }]
},

"MasterYi": {

"Mark":[ 
{
 "Label": "Greater Mark of Attack Speed",
 "RuneID": 5247,
 "Quantity": 9
 }],
"Seal":[ 
{
 "Label": "Greater Seal of Armor",
 "RuneID": 5317,
 "Quantity": 9
 }],
"Glyph":[ 
{
 "Label": "Greater Glyph of Scaling Magic Resist",
 "RuneID": 5290,
 "Quantity": 9
 }],
"Quintessence":[ 
{
 "Label": "Greater Quintessence of Attack Speed",
 "RuneID": 5337,
 "Quantity": 3
 }]
},

"Maokai": {

"Mark":[ 
{
 "Label": "Greater Mark of Magic Penetration",
 "RuneID": 5273,
 "Quantity": 9
 }],
"Seal":[ 
{
 "Label": "Greater Seal of Armor",
 "RuneID": 5317,
 "Quantity": 9
 }],
"Glyph":[ 
{
 "Label": "Greater Glyph of Scaling Cooldown Reduction",
 "RuneID": 5296,
 "Quantity": 9
 }],
"Quintessence":[ 
{
 "Label": "Greater Quintessence of Ability Power",
 "RuneID": 5357,
 "Quantity": 3
 }]
},

"MissFortune": {

"Mark":[ 
{
 "Label": "Greater Mark of Attack Damage",
 "RuneID": 5245,
 "Quantity": 9
 }],
"Seal":[ 
{
 "Label": "Greater Seal of Armor",
 "RuneID": 5317,
 "Quantity": 9
 }],
"Glyph":[ 
{
 "Label": "Greater Glyph of Scaling Magic Resist",
 "RuneID": 5290,
 "Quantity": 9
 }],
"Quintessence":[ 
{
 "Label": "Greater Quintessence of Attack Speed",
 "RuneID": 5337,
 "Quantity": 3
 }]
},

"Mordekaiser": {

"Mark":[ 
{
 "Label": "Greater Mark of Magic Penetration",
 "RuneID": 5273,
 "Quantity": 9
 }],
"Seal":[ 
{
 "Label": "Greater Seal of Armor",
 "RuneID": 5317,
 "Quantity": 9
 }],
"Glyph":[ 
{
 "Label": "Greater Glyph of Ability Power",
 "RuneID": 5297,
 "Quantity": 9
 }],
"Quintessence":[ 
{
 "Label": "Greater Quintessence of Ability Power",
 "RuneID": 5357,
 "Quantity": 3
 }]
},

"Morgana": {

"Mark":[ 
{
 "Label": "Greater Mark of Magic Penetration",
 "RuneID": 5273,
 "Quantity": 9
 }],
"Seal":[ 
{
 "Label": "Greater Seal of Scaling Health",
 "RuneID": 5316,
 "Quantity": 9
 }],
"Glyph":[ 
{
 "Label": "Greater Glyph of Scaling Cooldown Reduction",
 "RuneID": 5296,
 "Quantity": 9
 }],
"Quintessence":[ 
{
 "Label": "Greater Quintessence of Ability Power",
 "RuneID": 5357,
 "Quantity": 3
 }]
},

"Nami": {

"Mark":[ 
{
 "Label": "Greater Mark of Magic Penetration",
 "RuneID": 5273,
 "Quantity": 9
 }],
"Seal":[ 
{
 "Label": "Greater Seal of Armor",
 "RuneID": 5317,
 "Quantity": 9
 }],
"Glyph":[ 
{
 "Label": "Greater Glyph of Cooldown Reduction",
 "RuneID": 5295,
 "Quantity": 6
 },
{
 "Label": "Greater Glyph of Scaling Cooldown Reduction",
 "RuneID": 5296,
 "Quantity": 3
}],
"Quintessence":[ 
{
 "Label": "Greater Quintessence of Ability Power",
 "RuneID": 5357,
 "Quantity": 3
 }]
},

"Nasus": {

"Mark":[ 
{
 "Label": "Greater Mark of Hybrid Penetration",
 "RuneID": 5402,
 "Quantity": 9
 }],
"Seal":[ 
{
 "Label": "Greater Seal of Armor",
 "RuneID": 5317,
 "Quantity": 9
 }],
"Glyph":[ 
{
 "Label": "Greater Glyph of Cooldown Reduction",
 "RuneID": 5295,
 "Quantity": 9
 }],
"Quintessence":[ 
{
 "Label": "Greater Quintessence of Life Steal",
 "RuneID": 5412,
 "Quantity": 3
 }]
},

"Nautilus": {

"Mark":[ 
{
 "Label": "Greater Mark of Attack Speed",
 "RuneID": 5247,
 "Quantity": 9
 }],
"Seal":[ 
{
 "Label": "Greater Seal of Armor",
 "RuneID": 5317,
 "Quantity": 9
 }],
"Glyph":[ 
{
 "Label": "Greater Glyph of Scaling Cooldown Reduction",
 "RuneID": 5296,
 "Quantity": 9
 }],
"Quintessence":[ 
{
 "Label": "Greater Quintessence of Movement Speed",
 "RuneID": 5365,
 "Quantity": 3
 }]
},

"Nidalee": {

"Mark":[ 
{
 "Label": "Greater Mark of Magic Penetration",
 "RuneID": 5273,
 "Quantity": 9
 }],
"Seal":[ 
{
 "Label": "Greater Seal of Armor",
 "RuneID": 5317,
 "Quantity": 9
 }],
"Glyph":[ 
{
 "Label": "Greater Glyph of Scaling Cooldown Reduction",
 "RuneID": 5296,
 "Quantity": 9
 }],
"Quintessence":[ 
{
 "Label": "Greater Quintessence of Ability Power",
 "RuneID": 5357,
 "Quantity": 3
 }]
},

"Nocturne": {

"Mark":[ 
{
 "Label": "Greater Mark of Attack Damage",
 "RuneID": 5245,
 "Quantity": 9
 }],
"Seal":[ 
{
 "Label": "Greater Seal of Armor",
 "RuneID": 5317,
 "Quantity": 9
 }],
"Glyph":[ 
{
 "Label": "Greater Glyph of Scaling Cooldown Reduction",
 "RuneID": 5296,
 "Quantity": 9
 }],
"Quintessence":[ 
{
 "Label": "Greater Quintessence of Attack Speed",
 "RuneID": 5337,
 "Quantity": 3
 }]
},

"Nunu": {

"Mark":[ 
{
 "Label": "Greater Mark of Hybrid Penetration",
 "RuneID": 5402,
 "Quantity": 9
 }],
"Seal":[ 
{
 "Label": "Greater Seal of Armor",
 "RuneID": 5317,
 "Quantity": 9
 }],
"Glyph":[ 
{
 "Label": "Greater Glyph of Scaling Cooldown Reduction",
 "RuneID": 5296,
 "Quantity": 9
 }],
"Quintessence":[ 
{
 "Label": "Greater Quintessence of Ability Power",
 "RuneID": 5357,
 "Quantity": 3
 }]
},

"Olaf": {

"Mark":[ 
{
 "Label": "Greater Mark of Attack Damage",
 "RuneID": 5245,
 "Quantity": 9
 }],
"Seal":[ 
{
 "Label": "Greater Seal of Armor",
 "RuneID": 5317,
 "Quantity": 9
 }],
"Glyph":[ 
{
 "Label": "Greater Glyph of Scaling Cooldown Reduction",
 "RuneID": 5296,
 "Quantity": 9
 }],
"Quintessence":[ 
{
 "Label": "Greater Quintessence of Attack Damage",
 "RuneID": 5335,
 "Quantity": 3
 }]
},

"Orianna": {

"Mark":[ 
{
 "Label": "Greater Mark of Magic Penetration",
 "RuneID": 5273,
 "Quantity": 9
 }],
"Seal":[ 
{
 "Label": "Greater Seal of Scaling Health",
 "RuneID": 5316,
 "Quantity": 9
 }],
"Glyph":[ 
{
 "Label": "Greater Glyph of Scaling Cooldown Reduction",
 "RuneID": 5296,
 "Quantity": 9
 }],
"Quintessence":[ 
{
 "Label": "Greater Quintessence of Ability Power",
 "RuneID": 5357,
 "Quantity": 3
 }]
},

"Pantheon": {

"Mark":[ 
{
 "Label": "Greater Mark of Armor Penetration",
 "RuneID": 5253,
 "Quantity": 9
 }],
"Seal":[ 
{
 "Label": "Greater Seal of Armor",
 "RuneID": 5317,
 "Quantity": 9
 }],
"Glyph":[ 
{
 "Label": "Greater Glyph of Scaling Cooldown Reduction",
 "RuneID": 5296,
 "Quantity": 9
 }],
"Quintessence":[ 
{
 "Label": "Greater Quintessence of Attack Damage",
 "RuneID": 5335,
 "Quantity": 3
 }]
},

"Poppy": {

"Mark":[ 
{
 "Label": "Greater Mark of Attack Damage",
 "RuneID": 5245,
 "Quantity": 9
 }],
"Seal":[ 
{
 "Label": "Greater Seal of Armor",
 "RuneID": 5317,
 "Quantity": 9
 }],
"Glyph":[ 
{
 "Label": "Greater Glyph of Scaling Cooldown Reduction",
 "RuneID": 5296,
 "Quantity": 9
 }],
"Quintessence":[ 
{
 "Label": "Greater Quintessence of Attack Damage",
 "RuneID": 5335,
 "Quantity": 3
 }]
},

"Quinn": {

"Mark":[ 
{
 "Label": "Greater Mark of Attack Damage",
 "RuneID": 5245,
 "Quantity": 9
 }],
"Seal":[ 
{
 "Label": "Greater Seal of Armor",
 "RuneID": 5317,
 "Quantity": 9
 }],
"Glyph":[ 
{
 "Label": "Greater Glyph of Scaling Magic Resist",
 "RuneID": 5290,
 "Quantity": 9
 }],
"Quintessence":[ 
{
 "Label": "Greater Quintessence of Attack Speed",
 "RuneID": 5337,
 "Quantity": 3
 }]
},

"Rakan": {

"Mark":[ 
{
 "Label": "Greater Mark of Magic Penetration",
 "RuneID": 5273,
 "Quantity": 9
 }],
"Seal":[ 
{
 "Label": "Greater Seal of Armor",
 "RuneID": 5317,
 "Quantity": 9
 }],
"Glyph":[ 
{
 "Label": "Greater Glyph of Ability Power",
 "RuneID": 5297,
 "Quantity": 9
 }],
"Quintessence":[ 
{
 "Label": "Greater Quintessence of Ability Power",
 "RuneID": 5357,
 "Quantity": 3
 }]
},

"Rammus": {

"Mark":[ 
{
 "Label": "Greater Mark of Attack Speed",
 "RuneID": 5247,
 "Quantity": 9
 }],
"Seal":[ 
{
 "Label": "Greater Seal of Armor",
 "RuneID": 5317,
 "Quantity": 9
 }],
"Glyph":[ 
{
 "Label": "Greater Glyph of Scaling Cooldown Reduction",
 "RuneID": 5296,
 "Quantity": 9
 }],
"Quintessence":[ 
{
 "Label": "Greater Quintessence of Armor",
 "RuneID": 5347,
 "Quantity": 3
 }]
},

"RekSai": {

"Mark":[ 
{
 "Label": "Greater Mark of Attack Damage",
 "RuneID": 5245,
 "Quantity": 9
 }],
"Seal":[ 
{
 "Label": "Greater Seal of Armor",
 "RuneID": 5317,
 "Quantity": 9
 }],
"Glyph":[ 
{
 "Label": "Greater Glyph of Scaling Magic Resist",
 "RuneID": 5290,
 "Quantity": 9
 }],
"Quintessence":[ 
{
 "Label": "Greater Quintessence of Attack Speed",
 "RuneID": 5337,
 "Quantity": 3
 }]
},

"Renekton": {

"Mark":[ 
{
 "Label": "Greater Mark of Attack Damage",
 "RuneID": 5245,
 "Quantity": 9
 }],
"Seal":[ 
{
 "Label": "Greater Seal of Armor",
 "RuneID": 5317,
 "Quantity": 9
 }],
"Glyph":[ 
{
 "Label": "Greater Glyph of Scaling Cooldown Reduction",
 "RuneID": 5296,
 "Quantity": 9
 }],
"Quintessence":[ 
{
 "Label": "Greater Quintessence of Attack Damage",
 "RuneID": 5335,
 "Quantity": 3
 }]
},

"Rengar": {

"Mark":[ 
{
 "Label": "Greater Mark of Attack Damage",
 "RuneID": 5245,
 "Quantity": 9
 }],
"Seal":[ 
{
 "Label": "Greater Seal of Armor",
 "RuneID": 5317,
 "Quantity": 9
 }],
"Glyph":[ 
{
 "Label": "Greater Glyph of Cooldown Reduction",
 "RuneID": 5295,
 "Quantity": 9
 }],
"Quintessence":[ 
{
 "Label": "Greater Quintessence of Attack Damage",
 "RuneID": 5335,
 "Quantity": 2
 },
{
 "Label": "Greater Quintessence of Cooldown Reduction",
 "RuneID": 5355,
 "Quantity": 1
}]
},

"Riven": {

"Mark":[ 
{
 "Label": "Greater Mark of Attack Damage",
 "RuneID": 5245,
 "Quantity": 9
 }],
"Seal":[ 
{
 "Label": "Greater Seal of Armor",
 "RuneID": 5317,
 "Quantity": 9
 }],
"Glyph":[ 
{
 "Label": "Greater Glyph of Cooldown Reduction",
 "RuneID": 5295,
 "Quantity": 9
 }],
"Quintessence":[ 
{
 "Label": "Greater Quintessence of Attack Damage",
 "RuneID": 5335,
 "Quantity": 2
 },
{
 "Label": "Greater Quintessence of Cooldown Reduction",
 "RuneID": 5355,
 "Quantity": 1
}]
},

"Rumble": {

"Mark":[ 
{
 "Label": "Greater Mark of Magic Penetration",
 "RuneID": 5273,
 "Quantity": 9
 }],
"Seal":[ 
{
 "Label": "Greater Seal of Armor",
 "RuneID": 5317,
 "Quantity": 9
 }],
"Glyph":[ 
{
 "Label": "Greater Glyph of Ability Power",
 "RuneID": 5297,
 "Quantity": 9
 }],
"Quintessence":[ 
{
 "Label": "Greater Quintessence of Ability Power",
 "RuneID": 5357,
 "Quantity": 3
 }]
},

"Ryze": {

"Mark":[ 
{
 "Label": "Greater Mark of Magic Penetration",
 "RuneID": 5273,
 "Quantity": 9
 }],
"Seal":[ 
{
 "Label": "Greater Seal of Armor",
 "RuneID": 5317,
 "Quantity": 9
 }],
"Glyph":[ 
{
 "Label": "Greater Glyph of Scaling Cooldown Reduction",
 "RuneID": 5296,
 "Quantity": 9
 }],
"Quintessence":[ 
{
 "Label": "Greater Quintessence of Ability Power",
 "RuneID": 5357,
 "Quantity": 3
 }]
},

"Sejuani": {

"Mark":[ 
{
 "Label": "Greater Mark of Magic Penetration",
 "RuneID": 5273,
 "Quantity": 9
 }],
"Seal":[ 
{
 "Label": "Greater Seal of Armor",
 "RuneID": 5317,
 "Quantity": 9
 }],
"Glyph":[ 
{
 "Label": "Greater Glyph of Scaling Cooldown Reduction",
 "RuneID": 5296,
 "Quantity": 9
 }],
"Quintessence":[ 
{
 "Label": "Greater Quintessence of Movement Speed",
 "RuneID": 5365,
 "Quantity": 3
 }]
},

"Shaco": {

"Mark":[ 
{
 "Label": "Greater Mark of Attack Damage",
 "RuneID": 5245,
 "Quantity": 9
 }],
"Seal":[ 
{
 "Label": "Greater Seal of Armor",
 "RuneID": 5317,
 "Quantity": 9
 }],
"Glyph":[ 
{
 "Label": "Greater Glyph of Scaling Cooldown Reduction",
 "RuneID": 5296,
 "Quantity": 9
 }],
"Quintessence":[ 
{
 "Label": "Greater Quintessence of Attack Damage",
 "RuneID": 5335,
 "Quantity": 3
 }]
},

"Shen": {

"Mark":[ 
{
 "Label": "Greater Mark of Attack Damage",
 "RuneID": 5245,
 "Quantity": 9
 }],
"Seal":[ 
{
 "Label": "Greater Seal of Health",
 "RuneID": 5315,
 "Quantity": 9
 }],
"Glyph":[ 
{
 "Label": "Greater Glyph of Scaling Magic Resist",
 "RuneID": 5290,
 "Quantity": 9
 }],
"Quintessence":[ 
{
 "Label": "Greater Quintessence of Movement Speed",
 "RuneID": 5365,
 "Quantity": 3
 }]
},

"Shyvana": {

"Mark":[ 
{
 "Label": "Greater Mark of Attack Damage",
 "RuneID": 5245,
 "Quantity": 9
 }],
"Seal":[ 
{
 "Label": "Greater Seal of Armor",
 "RuneID": 5317,
 "Quantity": 9
 }],
"Glyph":[ 
{
 "Label": "Greater Glyph of Scaling Cooldown Reduction",
 "RuneID": 5296,
 "Quantity": 9
 }],
"Quintessence":[ 
{
 "Label": "Greater Quintessence of Attack Speed",
 "RuneID": 5337,
 "Quantity": 3
 }]
},

"Sion": {

"Mark":[ 
{
 "Label": "Greater Mark of Attack Damage",
 "RuneID": 5245,
 "Quantity": 9
 }],
"Seal":[ 
{
 "Label": "Greater Seal of Armor",
 "RuneID": 5317,
 "Quantity": 9
 }],
"Glyph":[ 
{
 "Label": "Greater Glyph of Scaling Cooldown Reduction",
 "RuneID": 5296,
 "Quantity": 9
 }],
"Quintessence":[ 
{
 "Label": "Greater Quintessence of Attack Damage",
 "RuneID": 5335,
 "Quantity": 3
 }]
},

"Singed": {

"Mark":[ 
{
 "Label": "Greater Mark of Magic Penetration",
 "RuneID": 5273,
 "Quantity": 9
 }],
"Seal":[ 
{
 "Label": "Greater Seal of Armor",
 "RuneID": 5317,
 "Quantity": 9
 }],
"Glyph":[ 
{
 "Label": "Greater Glyph of Ability Power",
 "RuneID": 5297,
 "Quantity": 9
 }],
"Quintessence":[ 
{
 "Label": "Greater Quintessence of Movement Speed",
 "RuneID": 5365,
 "Quantity": 3
 }]
},

"Sivir": {

"Mark":[ 
{
 "Label": "Greater Mark of Attack Damage",
 "RuneID": 5245,
 "Quantity": 9
 }],
"Seal":[ 
{
 "Label": "Greater Seal of Armor",
 "RuneID": 5317,
 "Quantity": 9
 }],
"Glyph":[ 
{
 "Label": "Greater Glyph of Scaling Magic Resist",
 "RuneID": 5290,
 "Quantity": 9
 }],
"Quintessence":[ 
{
 "Label": "Greater Quintessence of Attack Speed",
 "RuneID": 5337,
 "Quantity": 3
 }]
},

"Skarner": {

"Mark":[ 
{
 "Label": "Greater Mark of Attack Damage",
 "RuneID": 5245,
 "Quantity": 9
 }],
"Seal":[ 
{
 "Label": "Greater Seal of Armor",
 "RuneID": 5317,
 "Quantity": 9
 }],
"Glyph":[ 
{
 "Label": "Greater Glyph of Cooldown Reduction",
 "RuneID": 5295,
 "Quantity": 9
 }],
"Quintessence":[ 
{
 "Label": "Greater Quintessence of Attack Speed",
 "RuneID": 5337,
 "Quantity": 3
 }]
},

"Sona": {

"Mark":[ 
{
 "Label": "Greater Mark of Magic Penetration",
 "RuneID": 5273,
 "Quantity": 9
 }],
"Seal":[ 
{
 "Label": "Greater Seal of Armor",
 "RuneID": 5317,
 "Quantity": 9
 }],
"Glyph":[ 
{
 "Label": "Greater Glyph of Ability Power",
 "RuneID": 5297,
 "Quantity": 9
 }],
"Quintessence":[ 
{
 "Label": "Greater Quintessence of Ability Power",
 "RuneID": 5357,
 "Quantity": 3
 }]
},

"Soraka": {

"Mark":[ 
{
 "Label": "Greater Mark of Armor",
 "RuneID": 5257,
 "Quantity": 9
 }],
"Seal":[ 
{
 "Label": "Greater Seal of Armor",
 "RuneID": 5317,
 "Quantity": 9
 }],
"Glyph":[ 
{
 "Label": "Greater Glyph of Cooldown Reduction",
 "RuneID": 5295,
 "Quantity": 9
 }],
"Quintessence":[ 
{
 "Label": "Greater Quintessence of Ability Power",
 "RuneID": 5357,
 "Quantity": 3
 }]
},

"Swain": {

"Mark":[ 
{
 "Label": "Greater Mark of Magic Penetration",
 "RuneID": 5273,
 "Quantity": 9
 }],
"Seal":[ 
{
 "Label": "Greater Seal of Scaling Health",
 "RuneID": 5316,
 "Quantity": 9
 }],
"Glyph":[ 
{
 "Label": "Greater Glyph of Scaling Cooldown Reduction",
 "RuneID": 5296,
 "Quantity": 9
 }],
"Quintessence":[ 
{
 "Label": "Greater Quintessence of Ability Power",
 "RuneID": 5357,
 "Quantity": 3
 }]
},

"Syndra": {

"Mark":[ 
{
 "Label": "Greater Mark of Magic Penetration",
 "RuneID": 5273,
 "Quantity": 9
 }],
"Seal":[ 
{
 "Label": "Greater Seal of Scaling Health",
 "RuneID": 5316,
 "Quantity": 9
 }],
"Glyph":[ 
{
 "Label": "Greater Glyph of Scaling Cooldown Reduction",
 "RuneID": 5296,
 "Quantity": 9
 }],
"Quintessence":[ 
{
 "Label": "Greater Quintessence of Ability Power",
 "RuneID": 5357,
 "Quantity": 3
 }]
},

"TahmKench": {

"Mark":[ 
{
 "Label": "Greater Mark of Magic Penetration",
 "RuneID": 5273,
 "Quantity": 9
 }],
"Seal":[ 
{
 "Label": "Greater Seal of Armor",
 "RuneID": 5317,
 "Quantity": 9
 }],
"Glyph":[ 
{
 "Label": "Greater Glyph of Scaling Cooldown Reduction",
 "RuneID": 5296,
 "Quantity": 9
 }],
"Quintessence":[ 
{
 "Label": "Greater Quintessence of Movement Speed",
 "RuneID": 5365,
 "Quantity": 3
 }]
},

"Taliyah": {

"Mark":[ 
{
 "Label": "Greater Mark of Magic Penetration",
 "RuneID": 5273,
 "Quantity": 9
 }],
"Seal":[ 
{
 "Label": "Greater Seal of Scaling Health",
 "RuneID": 5316,
 "Quantity": 9
 }],
"Glyph":[ 
{
 "Label": "Greater Glyph of Scaling Cooldown Reduction",
 "RuneID": 5296,
 "Quantity": 9
 }],
"Quintessence":[ 
{
 "Label": "Greater Quintessence of Ability Power",
 "RuneID": 5357,
 "Quantity": 3
 }]
},

"Talon": {

"Mark":[ 
{
 "Label": "Greater Mark of Armor Penetration",
 "RuneID": 5253,
 "Quantity": 9
 }],
"Seal":[ 
{
 "Label": "Greater Seal of Scaling Health",
 "RuneID": 5316,
 "Quantity": 9
 }],
"Glyph":[ 
{
 "Label": "Greater Glyph of Scaling Cooldown Reduction",
 "RuneID": 5296,
 "Quantity": 9
 }],
"Quintessence":[ 
{
 "Label": "Greater Quintessence of Attack Damage",
 "RuneID": 5335,
 "Quantity": 3
 }]
},

"Taric": {

"Mark":[ 
{
 "Label": "Greater Mark of Armor",
 "RuneID": 5257,
 "Quantity": 9
 }],
"Seal":[ 
{
 "Label": "Greater Seal of Health",
 "RuneID": 5315,
 "Quantity": 9
 }],
"Glyph":[ 
{
 "Label": "Greater Glyph of Scaling Magic Resist",
 "RuneID": 5290,
 "Quantity": 9
 }],
"Quintessence":[ 
{
 "Label": "Greater Quintessence of Armor",
 "RuneID": 5347,
 "Quantity": 3
 }]
},

"Teemo": {

"Mark":[ 
{
 "Label": "Greater Mark of Attack Speed",
 "RuneID": 5247,
 "Quantity": 9
 }],
"Seal":[ 
{
 "Label": "Greater Seal of Scaling Health",
 "RuneID": 5316,
 "Quantity": 9
 }],
"Glyph":[ 
{
 "Label": "Greater Glyph of Ability Power",
 "RuneID": 5297,
 "Quantity": 9
 }],
"Quintessence":[ 
{
 "Label": "Greater Quintessence of Ability Power",
 "RuneID": 5357,
 "Quantity": 3
 }]
},

"Thresh": {

"Mark":[ 
{
 "Label": "Greater Mark of Attack Damage",
 "RuneID": 5245,
 "Quantity": 9
 }],
"Seal":[ 
{
 "Label": "Greater Seal of Armor",
 "RuneID": 5317,
 "Quantity": 9
 }],
"Glyph":[ 
{
 "Label": "Greater Glyph of Scaling Magic Resist",
 "RuneID": 5290,
 "Quantity": 9
 }],
"Quintessence":[ 
{
 "Label": "Greater Quintessence of Armor",
 "RuneID": 5347,
 "Quantity": 3
 }]
},

"Tristana": {

"Mark":[ 
{
 "Label": "Greater Mark of Attack Damage",
 "RuneID": 5245,
 "Quantity": 9
 }],
"Seal":[ 
{
 "Label": "Greater Seal of Armor",
 "RuneID": 5317,
 "Quantity": 9
 }],
"Glyph":[ 
{
 "Label": "Greater Glyph of Scaling Magic Resist",
 "RuneID": 5290,
 "Quantity": 9
 }],
"Quintessence":[ 
{
 "Label": "Greater Quintessence of Attack Speed",
 "RuneID": 5337,
 "Quantity": 3
 }]
},

"Trundle": {

"Mark":[ 
{
 "Label": "Greater Mark of Attack Damage",
 "RuneID": 5245,
 "Quantity": 9
 }],
"Seal":[ 
{
 "Label": "Greater Seal of Armor",
 "RuneID": 5317,
 "Quantity": 9
 }],
"Glyph":[ 
{
 "Label": "Greater Glyph of Scaling Magic Resist",
 "RuneID": 5290,
 "Quantity": 9
 }],
"Quintessence":[ 
{
 "Label": "Greater Quintessence of Attack Speed",
 "RuneID": 5337,
 "Quantity": 3
 }]
},

"Tryndamere": {

"Mark":[ 
{
 "Label": "Greater Mark of Attack Speed",
 "RuneID": 5247,
 "Quantity": 9
 }],
"Seal":[ 
{
 "Label": "Greater Seal of Armor",
 "RuneID": 5317,
 "Quantity": 9
 }],
"Glyph":[ 
{
 "Label": "Greater Glyph of Scaling Magic Resist",
 "RuneID": 5290,
 "Quantity": 9
 }],
"Quintessence":[ 
{
 "Label": "Greater Quintessence of Attack Speed",
 "RuneID": 5337,
 "Quantity": 3
 }]
},

"TwistedFate": {

"Mark":[ 
{
 "Label": "Greater Mark of Magic Penetration",
 "RuneID": 5273,
 "Quantity": 9
 }],
"Seal":[ 
{
 "Label": "Greater Seal of Scaling Health",
 "RuneID": 5316,
 "Quantity": 9
 }],
"Glyph":[ 
{
 "Label": "Greater Glyph of Scaling Cooldown Reduction",
 "RuneID": 5296,
 "Quantity": 9
 }],
"Quintessence":[ 
{
 "Label": "Greater Quintessence of Ability Power",
 "RuneID": 5357,
 "Quantity": 3
 }]
},

"Twitch": {

"Mark":[ 
{
 "Label": "Greater Mark of Attack Damage",
 "RuneID": 5245,
 "Quantity": 9
 }],
"Seal":[ 
{
 "Label": "Greater Seal of Armor",
 "RuneID": 5317,
 "Quantity": 9
 }],
"Glyph":[ 
{
 "Label": "Greater Glyph of Scaling Magic Resist",
 "RuneID": 5290,
 "Quantity": 9
 }],
"Quintessence":[ 
{
 "Label": "Greater Quintessence of Attack Speed",
 "RuneID": 5337,
 "Quantity": 3
 }]
},

"Udyr": {

"Mark":[ 
{
 "Label": "Greater Mark of Attack Speed",
 "RuneID": 5247,
 "Quantity": 9
 }],
"Seal":[ 
{
 "Label": "Greater Seal of Armor",
 "RuneID": 5317,
 "Quantity": 9
 }],
"Glyph":[ 
{
 "Label": "Greater Glyph of Cooldown Reduction",
 "RuneID": 5295,
 "Quantity": 6
 },
{
 "Label": "Greater Glyph of Scaling Cooldown Reduction",
 "RuneID": 5296,
 "Quantity": 3
}],
"Quintessence":[ 
{
 "Label": "Greater Quintessence of Movement Speed",
 "RuneID": 5365,
 "Quantity": 3
 }]
},

"Urgot": {

"Mark":[ 
{
 "Label": "Greater Mark of Armor Penetration",
 "RuneID": 5253,
 "Quantity": 9
 }],
"Seal":[ 
{
 "Label": "Greater Seal of Armor",
 "RuneID": 5317,
 "Quantity": 9
 }],
"Glyph":[ 
{
 "Label": "Greater Glyph of Scaling Cooldown Reduction",
 "RuneID": 5296,
 "Quantity": 9
 }],
"Quintessence":[ 
{
 "Label": "Greater Quintessence of Attack Damage",
 "RuneID": 5335,
 "Quantity": 3
 }]
},

"Varus": {

"Mark":[ 
{
 "Label": "Greater Mark of Attack Damage",
 "RuneID": 5245,
 "Quantity": 9
 }],
"Seal":[ 
{
 "Label": "Greater Seal of Armor",
 "RuneID": 5317,
 "Quantity": 9
 }],
"Glyph":[ 
{
 "Label": "Greater Glyph of Scaling Magic Resist",
 "RuneID": 5290,
 "Quantity": 9
 }],
"Quintessence":[ 
{
 "Label": "Greater Quintessence of Attack Damage",
 "RuneID": 5335,
 "Quantity": 3
 }]
},

"Vayne": {

"Mark":[ 
{
 "Label": "Greater Mark of Attack Damage",
 "RuneID": 5245,
 "Quantity": 9
 }],
"Seal":[ 
{
 "Label": "Greater Seal of Armor",
 "RuneID": 5317,
 "Quantity": 9
 }],
"Glyph":[ 
{
 "Label": "Greater Glyph of Scaling Magic Resist",
 "RuneID": 5290,
 "Quantity": 9
 }],
"Quintessence":[ 
{
 "Label": "Greater Quintessence of Attack Speed",
 "RuneID": 5337,
 "Quantity": 3
 }]
},

"Veigar": {

"Mark":[ 
{
 "Label": "Greater Mark of Magic Penetration",
 "RuneID": 5273,
 "Quantity": 9
 }],
"Seal":[ 
{
 "Label": "Greater Seal of Scaling Health",
 "RuneID": 5316,
 "Quantity": 9
 }],
"Glyph":[ 
{
 "Label": "Greater Glyph of Scaling Cooldown Reduction",
 "RuneID": 5296,
 "Quantity": 9
 }],
"Quintessence":[ 
{
 "Label": "Greater Quintessence of Movement Speed",
 "RuneID": 5365,
 "Quantity": 3
 }]
},

"Velkoz": {

"Mark":[ 
{
 "Label": "Greater Mark of Magic Penetration",
 "RuneID": 5273,
 "Quantity": 9
 }],
"Seal":[ 
{
 "Label": "Greater Seal of Scaling Health",
 "RuneID": 5316,
 "Quantity": 9
 }],
"Glyph":[ 
{
 "Label": "Greater Glyph of Scaling Cooldown Reduction",
 "RuneID": 5296,
 "Quantity": 9
 }],
"Quintessence":[ 
{
 "Label": "Greater Quintessence of Ability Power",
 "RuneID": 5357,
 "Quantity": 3
 }]
},

"Vi": {

"Mark":[ 
{
 "Label": "Greater Mark of Armor Penetration",
 "RuneID": 5253,
 "Quantity": 9
 }],
"Seal":[ 
{
 "Label": "Greater Seal of Armor",
 "RuneID": 5317,
 "Quantity": 9
 }],
"Glyph":[ 
{
 "Label": "Greater Glyph of Scaling Cooldown Reduction",
 "RuneID": 5296,
 "Quantity": 9
 }],
"Quintessence":[ 
{
 "Label": "Greater Quintessence of Attack Damage",
 "RuneID": 5335,
 "Quantity": 3
 }]
},

"Viktor": {

"Mark":[ 
{
 "Label": "Greater Mark of Magic Penetration",
 "RuneID": 5273,
 "Quantity": 9
 }],
"Seal":[ 
{
 "Label": "Greater Seal of Scaling Health",
 "RuneID": 5316,
 "Quantity": 9
 }],
"Glyph":[ 
{
 "Label": "Greater Glyph of Scaling Cooldown Reduction",
 "RuneID": 5296,
 "Quantity": 9
 }],
"Quintessence":[ 
{
 "Label": "Greater Quintessence of Ability Power",
 "RuneID": 5357,
 "Quantity": 3
 }]
},

"Volibear": {

"Mark":[ 
{
 "Label": "Greater Mark of Attack Damage",
 "RuneID": 5245,
 "Quantity": 9
 }],
"Seal":[ 
{
 "Label": "Greater Seal of Armor",
 "RuneID": 5317,
 "Quantity": 9
 }],
"Glyph":[ 
{
 "Label": "Greater Glyph of Scaling Cooldown Reduction",
 "RuneID": 5296,
 "Quantity": 9
 }],
"Quintessence":[ 
{
 "Label": "Greater Quintessence of Attack Speed",
 "RuneID": 5337,
 "Quantity": 3
 }]
},

"Vladimir": {

"Mark":[ 
{
 "Label": "Greater Mark of Magic Penetration",
 "RuneID": 5273,
 "Quantity": 9
 }],
"Seal":[ 
{
 "Label": "Greater Seal of Scaling Health",
 "RuneID": 5316,
 "Quantity": 9
 }],
"Glyph":[ 
{
 "Label": "Greater Glyph of Cooldown Reduction",
 "RuneID": 5295,
 "Quantity": 9
 }],
"Quintessence":[ 
{
 "Label": "Greater Quintessence of Ability Power",
 "RuneID": 5357,
 "Quantity": 3
 }]
},

"Warwick": {

"Mark":[ 
{
 "Label": "Greater Mark of Attack Damage",
 "RuneID": 5245,
 "Quantity": 9
 }],
"Seal":[ 
{
 "Label": "Greater Seal of Armor",
 "RuneID": 5317,
 "Quantity": 9
 }],
"Glyph":[ 
{
 "Label": "Greater Glyph of Scaling Cooldown Reduction",
 "RuneID": 5296,
 "Quantity": 9
 }],
"Quintessence":[ 
{
 "Label": "Greater Quintessence of Attack Speed",
 "RuneID": 5337,
 "Quantity": 3
 }]
},

"Wukong": {

"Mark":[ 
{
 "Label": "Greater Mark of Attack Damage",
 "RuneID": 5245,
 "Quantity": 9
 }],
"Seal":[ 
{
 "Label": "Greater Seal of Armor",
 "RuneID": 5317,
 "Quantity": 9
 }],
"Glyph":[ 
{
 "Label": "Greater Glyph of Scaling Cooldown Reduction",
 "RuneID": 5296,
 "Quantity": 9
 }],
"Quintessence":[ 
{
 "Label": "Greater Quintessence of Attack Damage",
 "RuneID": 5335,
 "Quantity": 3
 }]
},

"Xayah": {

"Mark":[ 
{
 "Label": "Greater Mark of Attack Damage",
 "RuneID": 5245,
 "Quantity": 9
 }],
"Seal":[ 
{
 "Label": "Greater Seal of Armor",
 "RuneID": 5317,
 "Quantity": 9
 }],
"Glyph":[ 
{
 "Label": "Greater Glyph of Scaling Magic Resist",
 "RuneID": 5290,
 "Quantity": 9
 }],
"Quintessence":[ 
{
 "Label": "Greater Quintessence of Attack Speed",
 "RuneID": 5337,
 "Quantity": 3
 }]
},

"Xerath": {

"Mark":[ 
{
 "Label": "Greater Mark of Magic Penetration",
 "RuneID": 5273,
 "Quantity": 9
 }],
"Seal":[ 
{
 "Label": "Greater Seal of Scaling Health",
 "RuneID": 5316,
 "Quantity": 9
 }],
"Glyph":[ 
{
 "Label": "Greater Glyph of Scaling Cooldown Reduction",
 "RuneID": 5296,
 "Quantity": 9
 }],
"Quintessence":[ 
{
 "Label": "Greater Quintessence of Ability Power",
 "RuneID": 5357,
 "Quantity": 3
 }]
},

"XinZhao": {

"Mark":[ 
{
 "Label": "Greater Mark of Attack Damage",
 "RuneID": 5245,
 "Quantity": 9
 }],
"Seal":[ 
{
 "Label": "Greater Seal of Armor",
 "RuneID": 5317,
 "Quantity": 9
 }],
"Glyph":[ 
{
 "Label": "Greater Glyph of Cooldown Reduction",
 "RuneID": 5295,
 "Quantity": 9
 }],
"Quintessence":[ 
{
 "Label": "Greater Quintessence of Attack Speed",
 "RuneID": 5337,
 "Quantity": 3
 }]
},

"Yasuo": {

"Mark":[ 
{
 "Label": "Greater Mark of Attack Damage",
 "RuneID": 5245,
 "Quantity": 9
 }],
"Seal":[ 
{
 "Label": "Greater Seal of Armor",
 "RuneID": 5317,
 "Quantity": 9
 }],
"Glyph":[ 
{
 "Label": "Greater Glyph of Scaling Magic Resist",
 "RuneID": 5290,
 "Quantity": 9
 }],
"Quintessence":[ 
{
 "Label": "Greater Quintessence of Attack Speed",
 "RuneID": 5337,
 "Quantity": 3
 }]
},

"Yorick": {

"Mark":[ 
{
 "Label": "Greater Mark of Attack Damage",
 "RuneID": 5245,
 "Quantity": 9
 }],
"Seal":[ 
{
 "Label": "Greater Seal of Armor",
 "RuneID": 5317,
 "Quantity": 9
 }],
"Glyph":[ 
{
 "Label": "Greater Glyph of Scaling Cooldown Reduction",
 "RuneID": 5296,
 "Quantity": 9
 }],
"Quintessence":[ 
{
 "Label": "Greater Quintessence of Attack Damage",
 "RuneID": 5335,
 "Quantity": 3
 }]
},

"Zac": {

"Mark":[ 
{
 "Label": "Greater Mark of Magic Penetration",
 "RuneID": 5273,
 "Quantity": 9
 }],
"Seal":[ 
{
 "Label": "Greater Seal of Armor",
 "RuneID": 5317,
 "Quantity": 9
 }],
"Glyph":[ 
{
 "Label": "Greater Glyph of Scaling Cooldown Reduction",
 "RuneID": 5296,
 "Quantity": 9
 }],
"Quintessence":[ 
{
 "Label": "Greater Quintessence of Ability Power",
 "RuneID": 5357,
 "Quantity": 3
 }]
},

"Ziggs": {

"Mark":[ 
{
 "Label": "Greater Mark of Magic Penetration",
 "RuneID": 5273,
 "Quantity": 9
 }],
"Seal":[ 
{
 "Label": "Greater Seal of Scaling Health",
 "RuneID": 5316,
 "Quantity": 9
 }],
"Glyph":[ 
{
 "Label": "Greater Glyph of Scaling Cooldown Reduction",
 "RuneID": 5296,
 "Quantity": 9
 }],
"Quintessence":[ 
{
 "Label": "Greater Quintessence of Ability Power",
 "RuneID": 5357,
 "Quantity": 3
 }]
},

"Zilean": {

"Mark":[ 
{
 "Label": "Greater Mark of Magic Penetration",
 "RuneID": 5273,
 "Quantity": 9
 }],
"Seal":[ 
{
 "Label": "Greater Seal of Scaling Health",
 "RuneID": 5316,
 "Quantity": 9
 }],
"Glyph":[ 
{
 "Label": "Greater Glyph of Scaling Cooldown Reduction",
 "RuneID": 5296,
 "Quantity": 9
 }],
"Quintessence":[ 
{
 "Label": "Greater Quintessence of Ability Power",
 "RuneID": 5357,
 "Quantity": 3
 }]
},

"Zed": {

"Mark":[ 
{
 "Label": "Greater Mark of Armor Penetration",
 "RuneID": 5253,
 "Quantity": 9
 }],
"Seal":[ 
{
 "Label": "Greater Seal of Scaling Health",
 "RuneID": 5316,
 "Quantity": 9
 }],
"Glyph":[ 
{
 "Label": "Greater Glyph of Scaling Cooldown Reduction",
 "RuneID": 5296,
 "Quantity": 9
 }],
"Quintessence":[ 
{
 "Label": "Greater Quintessence of Attack Damage",
 "RuneID": 5335,
 "Quantity": 3
 }]
},

"Zyra": {

"Mark":[ 
{
 "Label": "Greater Mark of Magic Penetration",
 "RuneID": 5273,
 "Quantity": 9
 }],
"Seal":[ 
{
 "Label": "Greater Seal of Scaling Health",
 "RuneID": 5316,
 "Quantity": 9
 }],
"Glyph":[ 
{
 "Label": "Greater Glyph of Scaling Cooldown Reduction",
 "RuneID": 5296,
 "Quantity": 9
 }],
"Quintessence":[ 
{
 "Label": "Greater Quintessence of Ability Power",
 "RuneID": 5357,
 "Quantity": 3
 }]}
 }